1 0.8708333333333333 0.45555555555555555 0.041666666666666664 0.16296296296296298
1 0.4847222222222222 0.45555555555555555 0.058333333333333334 0.15555555555555556
1 0.8708333333333333 0.45555555555555555 0.041666666666666664 0.16296296296296298
1 0.4847222222222222 0.45555555555555555 0.058333333333333334 0.15555555555555556
1 0.8708333333333333 0.45555555555555555 0.041666666666666664 0.16296296296296298
1 0.4847222222222222 0.45555555555555555 0.058333333333333334 0.15555555555555556
