1 0.9388888888888889 0.45925925925925926 0.05 0.15555555555555556
1 0.7458333333333333 0.32592592592592595 0.03611111111111111 0.13333333333333333
1 0.8180555555555555 0.5814814814814815 0.04722222222222222 0.18518518518518517
1 0.35694444444444445 0.3925925925925926 0.041666666666666664 0.1111111111111111
