1 0.8555555555555555 0.5537037037037037 0.05555555555555555 0.18888888888888888
1 0.7777777777777778 0.40370370370370373 0.03333333333333333 0.13333333333333333
1 0.06666666666666667 0.362962962962963 0.03888888888888889 0.11851851851851852
1 0.8652777777777778 0.2722222222222222 0.025 0.09259259259259259
1 0.30416666666666664 0.3351851851851852 0.030555555555555555 0.12222222222222222
1 0.8555555555555555 0.5537037037037037 0.05555555555555555 0.18888888888888888
1 0.7777777777777778 0.40370370370370373 0.03333333333333333 0.13333333333333333
1 0.06666666666666667 0.362962962962963 0.03888888888888889 0.11851851851851852
1 0.8652777777777778 0.2722222222222222 0.025 0.09259259259259259
1 0.30416666666666664 0.3351851851851852 0.030555555555555555 0.12222222222222222
1 0.8555555555555555 0.5537037037037037 0.05555555555555555 0.18888888888888888
1 0.7777777777777778 0.40370370370370373 0.03333333333333333 0.13333333333333333
1 0.06666666666666667 0.362962962962963 0.03888888888888889 0.11851851851851852
1 0.8652777777777778 0.2722222222222222 0.025 0.09259259259259259
1 0.30416666666666664 0.3351851851851852 0.030555555555555555 0.12222222222222222
