1 0.6986111111111111 0.34074074074074073 0.03611111111111111 0.1259259259259259
1 0.24305555555555555 0.3574074074074074 0.03611111111111111 0.10740740740740741
1 0.4083333333333333 0.45 0.05555555555555555 0.15925925925925927
1 0.9375 0.45740740740740743 0.041666666666666664 0.15925925925925927
1 0.6208333333333333 0.30185185185185187 0.030555555555555555 0.10740740740740741
