1 0.8180555555555555 0.5611111111111111 0.05277777777777778 0.16666666666666666
1 0.3375 0.37962962962962965 0.041666666666666664 0.12222222222222222
1 0.6958333333333333 0.45740740740740743 0.041666666666666664 0.16666666666666666
1 0.8208333333333333 0.8851851851851852 0.10277777777777777 0.22962962962962963
