1 0.5069444444444444 0.43703703703703706 0.041666666666666664 0.14074074074074075
1 0.6625 0.45740740740740743 0.041666666666666664 0.14444444444444443
1 0.7736111111111111 0.45740740740740743 0.04722222222222222 0.15185185185185185
1 0.29583333333333334 0.34629629629629627 0.041666666666666664 0.1
1 0.5069444444444444 0.43703703703703706 0.041666666666666664 0.14074074074074075
1 0.6625 0.45740740740740743 0.041666666666666664 0.14444444444444443
1 0.7736111111111111 0.45740740740740743 0.04722222222222222 0.15185185185185185
1 0.29583333333333334 0.34629629629629627 0.041666666666666664 0.1
1 0.5069444444444444 0.43703703703703706 0.041666666666666664 0.14074074074074075
1 0.6625 0.45740740740740743 0.041666666666666664 0.14444444444444443
1 0.7736111111111111 0.45740740740740743 0.04722222222222222 0.15185185185185185
1 0.29583333333333334 0.34629629629629627 0.041666666666666664 0.1
