1 0.37222222222222223 0.39814814814814814 0.05 0.13703703703703704
1 0.8222222222222222 0.29259259259259257 0.027777777777777776 0.0962962962962963
1 0.7875 0.2814814814814815 0.025 0.1111111111111111
1 0.37222222222222223 0.39814814814814814 0.05 0.13703703703703704
1 0.8222222222222222 0.29259259259259257 0.027777777777777776 0.0962962962962963
1 0.7875 0.2814814814814815 0.025 0.1111111111111111
1 0.37222222222222223 0.39814814814814814 0.05 0.13703703703703704
1 0.8222222222222222 0.29259259259259257 0.027777777777777776 0.0962962962962963
1 0.7875 0.2814814814814815 0.025 0.1111111111111111
