1 0.6097222222222223 0.4444444444444444 0.05277777777777778 0.15555555555555556
1 0.3902777777777778 0.3574074074074074 0.04722222222222222 0.10740740740740741
1 0.6875 0.4388888888888889 0.041666666666666664 0.14444444444444443
1 0.8916666666666667 0.23703703703703705 0.022222222222222223 0.08888888888888889
1 0.6097222222222223 0.4444444444444444 0.05277777777777778 0.15555555555555556
1 0.3902777777777778 0.3574074074074074 0.04722222222222222 0.10740740740740741
1 0.6875 0.4388888888888889 0.041666666666666664 0.14444444444444443
1 0.8916666666666667 0.23703703703703705 0.022222222222222223 0.08888888888888889
1 0.6097222222222223 0.4444444444444444 0.05277777777777778 0.15555555555555556
1 0.3902777777777778 0.3574074074074074 0.04722222222222222 0.10740740740740741
1 0.6875 0.4388888888888889 0.041666666666666664 0.14444444444444443
1 0.8916666666666667 0.23703703703703705 0.022222222222222223 0.08888888888888889
