1 0.6472222222222223 0.3296296296296296 0.03333333333333333 0.11851851851851852
1 0.8541666666666666 0.42592592592592593 0.041666666666666664 0.13333333333333333
1 0.49722222222222223 0.37592592592592594 0.03333333333333333 0.12962962962962962
1 0.39861111111111114 0.39814814814814814 0.041666666666666664 0.12962962962962962
1 0.6472222222222223 0.3296296296296296 0.03333333333333333 0.11851851851851852
1 0.8541666666666666 0.42592592592592593 0.041666666666666664 0.13333333333333333
1 0.49722222222222223 0.37592592592592594 0.03333333333333333 0.12962962962962962
1 0.39861111111111114 0.39814814814814814 0.041666666666666664 0.12962962962962962
1 0.6472222222222223 0.3296296296296296 0.03333333333333333 0.11851851851851852
1 0.8541666666666666 0.42592592592592593 0.041666666666666664 0.13333333333333333
1 0.49722222222222223 0.37592592592592594 0.03333333333333333 0.12962962962962962
1 0.39861111111111114 0.39814814814814814 0.041666666666666664 0.12962962962962962
