1 0.7541666666666667 0.40555555555555556 0.03611111111111111 0.14444444444444443
1 0.5055555555555555 0.387037037037037 0.03888888888888889 0.12962962962962962
1 0.6138888888888889 0.37407407407407406 0.03333333333333333 0.11851851851851852
1 0.7541666666666667 0.40555555555555556 0.03611111111111111 0.14444444444444443
1 0.5055555555555555 0.387037037037037 0.03888888888888889 0.12962962962962962
1 0.6138888888888889 0.37407407407407406 0.03333333333333333 0.11851851851851852
1 0.7541666666666667 0.40555555555555556 0.03611111111111111 0.14444444444444443
1 0.5055555555555555 0.387037037037037 0.03888888888888889 0.12962962962962962
1 0.6138888888888889 0.37407407407407406 0.03333333333333333 0.11851851851851852
