1 0.5027777777777778 0.3888888888888889 0.03888888888888889 0.1259259259259259
1 0.6055555555555555 0.3851851851851852 0.03333333333333333 0.11851851851851852
1 0.3625 0.3537037037037037 0.03611111111111111 0.1
1 0.6388888888888888 0.37962962962962965 0.03888888888888889 0.12222222222222222
1 0.5027777777777778 0.3888888888888889 0.03888888888888889 0.1259259259259259
1 0.6055555555555555 0.3851851851851852 0.03333333333333333 0.11851851851851852
1 0.3625 0.3537037037037037 0.03611111111111111 0.1
1 0.6388888888888888 0.37962962962962965 0.03888888888888889 0.12222222222222222
1 0.5027777777777778 0.3888888888888889 0.03888888888888889 0.1259259259259259
1 0.6055555555555555 0.3851851851851852 0.03333333333333333 0.11851851851851852
1 0.3625 0.3537037037037037 0.03611111111111111 0.1
1 0.6388888888888888 0.37962962962962965 0.03888888888888889 0.12222222222222222
