1 0.10138888888888889 0.19814814814814816 0.019444444444444445 0.06296296296296296
1 0.8625 0.24074074074074073 0.030555555555555555 0.0962962962962963
1 0.8430555555555556 0.24074074074074073 0.030555555555555555 0.1037037037037037
1 0.5972222222222222 0.39444444444444443 0.03333333333333333 0.14444444444444443
1 0.5694444444444444 0.40370370370370373 0.03888888888888889 0.14074074074074075
1 0.10138888888888889 0.19814814814814816 0.019444444444444445 0.06296296296296296
1 0.8625 0.24074074074074073 0.030555555555555555 0.0962962962962963
1 0.8430555555555556 0.24074074074074073 0.030555555555555555 0.1037037037037037
1 0.5972222222222222 0.39444444444444443 0.03333333333333333 0.14444444444444443
1 0.5694444444444444 0.40370370370370373 0.03888888888888889 0.14074074074074075
1 0.10138888888888889 0.19814814814814816 0.019444444444444445 0.06296296296296296
1 0.8625 0.24074074074074073 0.030555555555555555 0.0962962962962963
1 0.8430555555555556 0.24074074074074073 0.030555555555555555 0.1037037037037037
1 0.5972222222222222 0.39444444444444443 0.03333333333333333 0.14444444444444443
1 0.5694444444444444 0.40370370370370373 0.03888888888888889 0.14074074074074075
