1 0.8152777777777778 0.5722222222222222 0.04722222222222222 0.18888888888888888
1 0.6180555555555556 0.40185185185185185 0.03611111111111111 0.13703703703703704
1 0.7861111111111111 0.35555555555555557 0.027777777777777776 0.14074074074074075
1 0.2916666666666667 0.3351851851851852 0.03333333333333333 0.12222222222222222
1 0.3375 0.3314814814814815 0.03611111111111111 0.11481481481481481
