1 0.7555555555555555 0.387037037037037 0.03333333333333333 0.14444444444444443
1 0.3902777777777778 0.387037037037037 0.041666666666666664 0.12222222222222222
1 0.6194444444444445 0.34814814814814815 0.03333333333333333 0.11851851851851852
1 0.5055555555555555 0.387037037037037 0.03888888888888889 0.12222222222222222
1 0.7555555555555555 0.387037037037037 0.03333333333333333 0.14444444444444443
1 0.3902777777777778 0.387037037037037 0.041666666666666664 0.12222222222222222
1 0.6194444444444445 0.34814814814814815 0.03333333333333333 0.11851851851851852
1 0.5055555555555555 0.387037037037037 0.03888888888888889 0.12222222222222222
1 0.7555555555555555 0.387037037037037 0.03333333333333333 0.14444444444444443
1 0.3902777777777778 0.387037037037037 0.041666666666666664 0.12222222222222222
1 0.6194444444444445 0.34814814814814815 0.03333333333333333 0.11851851851851852
1 0.5055555555555555 0.387037037037037 0.03888888888888889 0.12222222222222222
