1 0.8069444444444445 0.42777777777777776 0.03611111111111111 0.15185185185185185
1 0.6666666666666666 0.3592592592592593 0.03888888888888889 0.11851851851851852
1 0.4361111111111111 0.37407407407407406 0.05 0.1111111111111111
