1 0.7194444444444444 0.3888888888888889 0.03888888888888889 0.14074074074074075
1 0.275 0.3351851851851852 0.03888888888888889 0.11481481481481481
1 0.06805555555555555 0.3648148148148148 0.03611111111111111 0.12222222222222222
1 0.7930555555555555 0.5296296296296297 0.05277777777777778 0.17037037037037037
1 0.5138888888888888 0.48333333333333334 0.05555555555555555 0.14444444444444443
1 0.8569444444444444 0.2740740740740741 0.030555555555555555 0.0962962962962963
1 0.7194444444444444 0.3888888888888889 0.03888888888888889 0.14074074074074075
1 0.275 0.3351851851851852 0.03888888888888889 0.11481481481481481
1 0.06805555555555555 0.3648148148148148 0.03611111111111111 0.12222222222222222
1 0.7930555555555555 0.5296296296296297 0.05277777777777778 0.17037037037037037
1 0.5138888888888888 0.48333333333333334 0.05555555555555555 0.14444444444444443
1 0.8569444444444444 0.2740740740740741 0.030555555555555555 0.0962962962962963
1 0.7194444444444444 0.3888888888888889 0.03888888888888889 0.14074074074074075
1 0.275 0.3351851851851852 0.03888888888888889 0.11481481481481481
1 0.06805555555555555 0.3648148148148148 0.03611111111111111 0.12222222222222222
1 0.7930555555555555 0.5296296296296297 0.05277777777777778 0.17037037037037037
1 0.5138888888888888 0.48333333333333334 0.05555555555555555 0.14444444444444443
1 0.8569444444444444 0.2740740740740741 0.030555555555555555 0.0962962962962963
