1 0.8513888888888889 0.45925925925925926 0.041666666666666664 0.15555555555555556
1 0.1875 0.3277777777777778 0.030555555555555555 0.11481481481481481
1 0.21944444444444444 0.3425925925925926 0.03333333333333333 0.11481481481481481
1 0.7055555555555556 0.512962962962963 0.044444444444444446 0.14444444444444443
