1 0.43472222222222223 0.4351851851851852 0.04722222222222222 0.14444444444444443
1 0.8277777777777777 0.2796296296296296 0.03888888888888889 0.10740740740740741
1 0.6902777777777778 0.5037037037037037 0.05277777777777778 0.17037037037037037
1 0.06666666666666667 0.3611111111111111 0.03888888888888889 0.12222222222222222
1 0.43472222222222223 0.4351851851851852 0.04722222222222222 0.14444444444444443
1 0.8277777777777777 0.2796296296296296 0.03888888888888889 0.10740740740740741
1 0.6902777777777778 0.5037037037037037 0.05277777777777778 0.17037037037037037
1 0.06666666666666667 0.3611111111111111 0.03888888888888889 0.12222222222222222
1 0.43472222222222223 0.4351851851851852 0.04722222222222222 0.14444444444444443
1 0.8277777777777777 0.2796296296296296 0.03888888888888889 0.10740740740740741
1 0.6902777777777778 0.5037037037037037 0.05277777777777778 0.17037037037037037
1 0.06666666666666667 0.3611111111111111 0.03888888888888889 0.12222222222222222
