1 0.6694444444444444 0.8592592592592593 0.08333333333333333 0.2814814814814815
1 0.6555555555555556 0.44814814814814813 0.044444444444444446 0.16296296296296298
1 0.8819444444444444 0.44814814814814813 0.041666666666666664 0.15555555555555556
1 0.8333333333333334 0.5555555555555556 0.03888888888888889 0.16296296296296298
1 0.30833333333333335 0.37962962962962965 0.044444444444444446 0.11481481481481481
