1 0.6513888888888889 0.3388888888888889 0.030555555555555555 0.12962962962962962
1 0.8694444444444445 0.43703703703703706 0.03888888888888889 0.14074074074074075
1 0.4236111111111111 0.4351851851851852 0.05277777777777778 0.13703703703703704
1 0.6513888888888889 0.3388888888888889 0.030555555555555555 0.12962962962962962
1 0.8694444444444445 0.43703703703703706 0.03888888888888889 0.14074074074074075
1 0.4236111111111111 0.4351851851851852 0.05277777777777778 0.13703703703703704
1 0.6513888888888889 0.3388888888888889 0.030555555555555555 0.12962962962962962
1 0.8694444444444445 0.43703703703703706 0.03888888888888889 0.14074074074074075
1 0.4236111111111111 0.4351851851851852 0.05277777777777778 0.13703703703703704
