1 0.6472222222222223 0.34814814814814815 0.03888888888888889 0.11851851851851852
1 0.4013888888888889 0.45 0.05277777777777778 0.15185185185185185
1 0.7847222222222222 0.4888888888888889 0.03611111111111111 0.14814814814814814
1 0.6472222222222223 0.34814814814814815 0.03888888888888889 0.11851851851851852
1 0.4013888888888889 0.45 0.05277777777777778 0.15185185185185185
1 0.7847222222222222 0.4888888888888889 0.03611111111111111 0.14814814814814814
1 0.6472222222222223 0.34814814814814815 0.03888888888888889 0.11851851851851852
1 0.4013888888888889 0.45 0.05277777777777778 0.15185185185185185
1 0.7847222222222222 0.4888888888888889 0.03611111111111111 0.14814814814814814
