1 0.3875 0.40925925925925927 0.04722222222222222 0.14444444444444443
1 0.8236111111111111 0.28888888888888886 0.030555555555555555 0.08888888888888889
1 0.059722222222222225 0.3611111111111111 0.03611111111111111 0.11481481481481481
1 0.6263888888888889 0.49444444444444446 0.041666666666666664 0.15925925925925927
1 0.17916666666666667 0.3055555555555556 0.025 0.10740740740740741
1 0.3875 0.40925925925925927 0.04722222222222222 0.14444444444444443
1 0.8236111111111111 0.28888888888888886 0.030555555555555555 0.08888888888888889
1 0.059722222222222225 0.3611111111111111 0.03611111111111111 0.11481481481481481
1 0.6263888888888889 0.49444444444444446 0.041666666666666664 0.15925925925925927
1 0.17916666666666667 0.3055555555555556 0.025 0.10740740740740741
1 0.3875 0.40925925925925927 0.04722222222222222 0.14444444444444443
1 0.8236111111111111 0.28888888888888886 0.030555555555555555 0.08888888888888889
1 0.059722222222222225 0.3611111111111111 0.03611111111111111 0.11481481481481481
1 0.6263888888888889 0.49444444444444446 0.041666666666666664 0.15925925925925927
1 0.17916666666666667 0.3055555555555556 0.025 0.10740740740740741
