1 0.43194444444444446 0.8740740740740741 0.10277777777777777 0.2518518518518518
1 0.8513888888888889 0.6203703703703703 0.041666666666666664 0.17407407407407408
1 0.7305555555555555 0.40925925925925927 0.044444444444444446 0.15185185185185185
1 0.9152777777777777 0.45185185185185184 0.04722222222222222 0.14814814814814814
1 0.2388888888888889 0.31296296296296294 0.03333333333333333 0.11481481481481481
