1 0.7097222222222223 0.4185185185185185 0.04722222222222222 0.14814814814814814
1 0.9319444444444445 0.5 0.041666666666666664 0.14814814814814814
1 0.7097222222222223 0.4185185185185185 0.04722222222222222 0.14814814814814814
1 0.9319444444444445 0.5 0.041666666666666664 0.14814814814814814
