1 0.8263888888888888 0.28703703703703703 0.03611111111111111 0.1
1 0.6125 0.3648148148148148 0.03611111111111111 0.12222222222222222
1 0.6708333333333333 0.4962962962962963 0.041666666666666664 0.16296296296296298
1 0.06805555555555555 0.3648148148148148 0.041666666666666664 0.12222222222222222
1 0.8263888888888888 0.28703703703703703 0.03611111111111111 0.1
1 0.6125 0.3648148148148148 0.03611111111111111 0.12222222222222222
1 0.6708333333333333 0.4962962962962963 0.041666666666666664 0.16296296296296298
1 0.06805555555555555 0.3648148148148148 0.041666666666666664 0.12222222222222222
1 0.8263888888888888 0.28703703703703703 0.03611111111111111 0.1
1 0.6125 0.3648148148148148 0.03611111111111111 0.12222222222222222
1 0.6708333333333333 0.4962962962962963 0.041666666666666664 0.16296296296296298
1 0.06805555555555555 0.3648148148148148 0.041666666666666664 0.12222222222222222
