1 0.6638888888888889 0.3888888888888889 0.044444444444444446 0.13333333333333333
1 0.8527777777777777 0.6129629629629629 0.044444444444444446 0.17407407407407408
1 0.5 0.8648148148148148 0.06666666666666667 0.26296296296296295
1 0.7472222222222222 0.5777777777777777 0.05 0.18518518518518517
