1 0.6722222222222223 0.3425925925925926 0.03888888888888889 0.12222222222222222
1 0.6222222222222222 0.3333333333333333 0.03333333333333333 0.1111111111111111
1 0.5138888888888888 0.48148148148148145 0.05555555555555555 0.15555555555555556
