1 0.7416666666666667 0.8759259259259259 0.09444444444444444 0.24074074074074073
1 0.8236111111111111 0.5574074074074075 0.05277777777777778 0.15925925925925927
1 0.32916666666666666 0.3814814814814815 0.03611111111111111 0.11851851851851852
1 0.6763888888888889 0.44814814814814813 0.04722222222222222 0.16296296296296298
1 0.9430555555555555 0.6592592592592592 0.058333333333333334 0.2
