1 0.8236111111111111 0.3907407407407407 0.03611111111111111 0.12962962962962962
1 0.4 0.3574074074074074 0.03888888888888889 0.11481481481481481
1 0.8236111111111111 0.3907407407407407 0.03611111111111111 0.12962962962962962
1 0.4 0.3574074074074074 0.03888888888888889 0.11481481481481481
1 0.8236111111111111 0.3907407407407407 0.03611111111111111 0.12962962962962962
1 0.4 0.3574074074074074 0.03888888888888889 0.11481481481481481
