1 0.8319444444444445 0.24444444444444444 0.03611111111111111 0.1037037037037037
1 0.12777777777777777 0.1814814814814815 0.016666666666666666 0.06666666666666667
1 0.6513888888888889 0.39444444444444443 0.041666666666666664 0.12222222222222222
1 0.5194444444444445 0.40185185185185185 0.03333333333333333 0.13703703703703704
1 0.5597222222222222 0.39444444444444443 0.041666666666666664 0.13703703703703704
1 0.8319444444444445 0.24444444444444444 0.03611111111111111 0.1037037037037037
1 0.12777777777777777 0.1814814814814815 0.016666666666666666 0.06666666666666667
1 0.6513888888888889 0.39444444444444443 0.041666666666666664 0.12222222222222222
1 0.5194444444444445 0.40185185185185185 0.03333333333333333 0.13703703703703704
1 0.5597222222222222 0.39444444444444443 0.041666666666666664 0.13703703703703704
1 0.8319444444444445 0.24444444444444444 0.03611111111111111 0.1037037037037037
1 0.12777777777777777 0.1814814814814815 0.016666666666666666 0.06666666666666667
1 0.6513888888888889 0.39444444444444443 0.041666666666666664 0.12222222222222222
1 0.5194444444444445 0.40185185185185185 0.03333333333333333 0.13703703703703704
1 0.5597222222222222 0.39444444444444443 0.041666666666666664 0.13703703703703704
