1 0.5513888888888889 0.8425925925925926 0.13055555555555556 0.2777777777777778
1 0.6222222222222222 0.4203703703703704 0.044444444444444446 0.15185185185185185
1 0.2833333333333333 0.3592592592592593 0.03333333333333333 0.1037037037037037
