1 0.22777777777777777 0.35555555555555557 0.03888888888888889 0.11851851851851852
1 0.8111111111111111 0.3888888888888889 0.03888888888888889 0.13333333333333333
1 0.4083333333333333 0.7851851851851852 0.08888888888888889 0.25925925925925924
1 0.8569444444444444 0.5814814814814815 0.05277777777777778 0.17777777777777778
1 0.5916666666666667 0.3888888888888889 0.03888888888888889 0.15555555555555556
1 0.3541666666666667 0.7870370370370371 0.08055555555555556 0.24814814814814815
