1 0.4486111111111111 0.42962962962962964 0.04722222222222222 0.13333333333333333
1 0.7111111111111111 0.4888888888888889 0.05 0.14074074074074075
1 0.6138888888888889 0.3611111111111111 0.03888888888888889 0.12222222222222222
1 0.4486111111111111 0.42962962962962964 0.04722222222222222 0.13333333333333333
1 0.7111111111111111 0.4888888888888889 0.05 0.14074074074074075
1 0.6138888888888889 0.3611111111111111 0.03888888888888889 0.12222222222222222
1 0.4486111111111111 0.42962962962962964 0.04722222222222222 0.13333333333333333
1 0.7111111111111111 0.4888888888888889 0.05 0.14074074074074075
1 0.6138888888888889 0.3611111111111111 0.03888888888888889 0.12222222222222222
