1 0.8125 0.4962962962962963 0.05277777777777778 0.18518518518518517
1 0.6513888888888889 0.42592592592592593 0.03611111111111111 0.13333333333333333
1 0.8125 0.4962962962962963 0.05277777777777778 0.18518518518518517
1 0.6513888888888889 0.42592592592592593 0.03611111111111111 0.13333333333333333
1 0.8125 0.4962962962962963 0.05277777777777778 0.18518518518518517
1 0.6513888888888889 0.42592592592592593 0.03611111111111111 0.13333333333333333
