1 0.7208333333333333 0.4462962962962963 0.03611111111111111 0.13703703703703704
1 0.8611111111111112 0.44814814814814813 0.044444444444444446 0.14814814814814814
1 0.7708333333333334 0.2759259259259259 0.030555555555555555 0.10740740740740741
1 0.5138888888888888 0.387037037037037 0.03333333333333333 0.13703703703703704
1 0.2111111111111111 0.16111111111111112 0.016666666666666666 0.06296296296296296
1 0.7208333333333333 0.4462962962962963 0.03611111111111111 0.13703703703703704
1 0.8611111111111112 0.44814814814814813 0.044444444444444446 0.14814814814814814
1 0.7708333333333334 0.2759259259259259 0.030555555555555555 0.10740740740740741
1 0.5138888888888888 0.387037037037037 0.03333333333333333 0.13703703703703704
1 0.2111111111111111 0.16111111111111112 0.016666666666666666 0.06296296296296296
1 0.7208333333333333 0.4462962962962963 0.03611111111111111 0.13703703703703704
1 0.8611111111111112 0.44814814814814813 0.044444444444444446 0.14814814814814814
1 0.7708333333333334 0.2759259259259259 0.030555555555555555 0.10740740740740741
1 0.5138888888888888 0.387037037037037 0.03333333333333333 0.13703703703703704
1 0.2111111111111111 0.16111111111111112 0.016666666666666666 0.06296296296296296
