1 0.7138888888888889 0.337037037037037 0.03888888888888889 0.11851851851851852
1 0.7666666666666667 0.562962962962963 0.05 0.17777777777777778
1 0.37777777777777777 0.37407407407407406 0.044444444444444446 0.1259259259259259
