1 0.9152777777777777 0.45925925925925926 0.058333333333333334 0.16296296296296298
1 0.6375 0.40185185185185185 0.03611111111111111 0.15185185185185185
1 0.9152777777777777 0.45925925925925926 0.058333333333333334 0.16296296296296298
1 0.6375 0.40185185185185185 0.03611111111111111 0.15185185185185185
