1 0.45555555555555555 0.40370370370370373 0.044444444444444446 0.1259259259259259
1 0.8236111111111111 0.55 0.041666666666666664 0.16666666666666666
1 0.7513888888888889 0.5259259259259259 0.041666666666666664 0.18518518518518517
