1 0.6569444444444444 0.39814814814814814 0.03611111111111111 0.12222222222222222
1 0.7291666666666666 0.49074074074074076 0.05277777777777778 0.17407407407407408
1 0.44305555555555554 0.43333333333333335 0.041666666666666664 0.13333333333333333
