1 0.6513888888888889 0.3388888888888889 0.030555555555555555 0.12962962962962962
1 0.8722222222222222 0.44074074074074077 0.03888888888888889 0.14074074074074075
1 0.42916666666666664 0.4388888888888889 0.05277777777777778 0.13703703703703704
1 0.6513888888888889 0.3388888888888889 0.030555555555555555 0.12962962962962962
1 0.8722222222222222 0.44074074074074077 0.03888888888888889 0.14074074074074075
1 0.42916666666666664 0.4388888888888889 0.05277777777777778 0.13703703703703704
1 0.6513888888888889 0.3388888888888889 0.030555555555555555 0.12962962962962962
1 0.8722222222222222 0.44074074074074077 0.03888888888888889 0.14074074074074075
1 0.42916666666666664 0.4388888888888889 0.05277777777777778 0.13703703703703704
