1 0.8194444444444444 0.5037037037037037 0.05 0.18518518518518517
1 0.6638888888888889 0.42407407407407405 0.03333333333333333 0.12962962962962962
1 0.8194444444444444 0.5037037037037037 0.05 0.18518518518518517
1 0.6638888888888889 0.42407407407407405 0.03333333333333333 0.12962962962962962
1 0.8194444444444444 0.5037037037037037 0.05 0.18518518518518517
1 0.6638888888888889 0.42407407407407405 0.03333333333333333 0.12962962962962962
