1 0.6527777777777778 0.39814814814814814 0.03888888888888889 0.14444444444444443
1 0.19305555555555556 0.37962962962962965 0.03611111111111111 0.12222222222222222
1 0.35694444444444445 0.38333333333333336 0.03611111111111111 0.12222222222222222
1 0.4097222222222222 0.3574074074074074 0.030555555555555555 0.10740740740740741
1 0.7458333333333333 0.42407407407407405 0.03611111111111111 0.13703703703703704
1 0.7319444444444444 0.2740740740740741 0.030555555555555555 0.1111111111111111
