1 0.7097222222222223 0.412962962962963 0.04722222222222222 0.14444444444444443
1 0.9277777777777778 0.5 0.03888888888888889 0.14814814814814814
1 0.7097222222222223 0.412962962962963 0.04722222222222222 0.14444444444444443
1 0.9277777777777778 0.5 0.03888888888888889 0.14814814814814814
